[
    {"source": "app/assistants/stage-assistant.js"},
    {
        "scenes": "main",
        "source": "app/assistants/main-assistant.js"
    },
    {
        "scenes": "main",
        "source": "app/assistants/bet-assistant.js"
    },
    {"source": "app/javascript/settings.js"},
    {
        "scenes": "main",
        "source": "app/javascript/card.js"
    },
    {
        "scenes": "main",
        "source": "app/javascript/deck.js"
    },
    {
        "scenes": "main",
        "source": "app/javascript/hand.js"
    },
    {
        "scenes": "main",
        "source": "app/javascript/player.js"
    },
    {
        "scenes": "main",
        "source": "app/javascript/round.js"
    },
    {
        "scenes": "main",
        "source": "app/javascript/betting.js"
    },
    {
        "scenes": "main",
        "source": "app/javascript/result.js"
    },
    {
        "scenes": "support",
        "source": "app/javascript/support_info.js"
    },
    {
        "scenes": "support",
        "source": "app/assistants/support-assistant.js"
    },
    {
        "scenes": "rules",
        "source": "app/assistants/rules-assistant.js"
    },
    {
        "scenes": "preferences",
        "source": "app/assistants/preferences-assistant.js"
    }
]